<?xml version="1.0"?>
<robot name="snake_arm">
    <link name="base_link">
        <visual>
            <origin rpy="1.5708 0 0" xyz="0 0 0"/>
            <geometry>
                <cylinder radius = "0.04" length = "0.2" />
            </geometry>
            <material name = "gray A">
				<color rgba = "0.1 0.1 0.1 1" />
            </material>
        </visual>
    </link>
    <link name="link_1">
        <visual>
            <origin xyz = "0 0 0.15" />
            <geometry>
                <cylinder radius = "0.02" length = "0.3" />
            </geometry>
            <material name = "gray A">
				<color rgba = "0.8 0.8 0.8 1" />
            </material>
        </visual>
    </link>
    <link name="link_2">
        <visual>
            <origin xyz = "0 0 0.032" />
            <geometry>
                <cylinder radius = "0.02" length = "0.064" />
            </geometry>
            <material name = "gray A">
				<color rgba = "0.8 1.0 1.0 1" />
            </material>
        </visual>
    </link>
    <link name="link_comb">
        <visual>
            <origin xyz = "0 0 0.2" />
            <geometry>
                <cylinder radius = "0.024" length = "0.40" />
            </geometry>
            <material name = "gray A">
				<color rgba = "0.8 0.6 1.0 1" />
            </material>
        </visual>
    </link>

    <joint name = "shoulder" type = "revolute">
		<parent link = "base_link" />
		<child link = "link_1" />
		<origin xyz = "0 0 0" />
		<axis xyz = "0 1 0" />
	</joint>
    <joint name = "elbow_pitch" type = "revolute">
		<parent link = "link_1" />
		<child link = "link_2" />
		<origin xyz = "0 0 0.3" />
		<axis xyz = "0 1 0" />
	</joint>
        <joint name = "elbow_yaw" type = "revolute">
		<parent link = "link_2" />
		<child link = "link_comb" />
		<origin xyz = "0 0 0.064" />
		<axis xyz = "1 0 0" />
	</joint>

</robot>

